Ready-to-start-coding/Project_3/UVM_Slave_Task/code/tb.vcd
$date
	Fri Nov 15 18:06:01 2024
$end

$version
	Synopsys VCS version L-2016.06_Full64
$end

$timescale
	1s
$end

$comment Csum: 1 17d445d4cb894261 $end


$scope module tb $end
$var reg 1 ! clock $end
$var reg 1 " reset $end

$scope begin unnamed$$_vcs_3 $end
$upscope $end


$scope begin unnamed$$_vcs_0 $end
$upscope $end


$scope begin unnamed$$_vcs_1 $end
$upscope $end


$scope begin unnamed$$_vcs_2 $end
$upscope $end


$scope begin unnamed$$_vcs_4 $end
$upscope $end


$scope module slave_if_0 $end
$var reg 1 # clk $end
$var reg 1 $ rst_n $end
$var reg 1 % ready $end
$var reg 1 & valid $end
$var reg 4 ' data [3:0] $end
$upscope $end


$scope module uut $end
$var wire 1 ( clk $end
$var wire 1 ) rst_n $end
$var wire 1 * valid $end
$var wire 4 + data [3:0] $end
$var reg 1 , ready $end
$var reg 4 - count [3:0] $end
$var reg 4 . r_count [3:0] $end
$var reg 4 / temp [3:0] $end

$scope begin unnamed$$_vcs_0 $end
$upscope $end

$upscope $end

$upscope $end

$enddefinitions $end

#0
$dumpvars
0!
0"
bxxxx '
x,
b0000 -
b0000 .
b0000 /
bxxxx +
0(
0)
x*
0#
x%
0$
x&
$end
#10
1!
1#
1(
0,
0%
#20
0!
0#
0(
#30
1!
1#
1(
#40
0!
0#
0(
#50
1!
1#
1(
#60
0!
0#
0(
#70
1!
1#
1(
#75
1"
1$
1)
#80
0!
0#
0(
#90
1!
1#
1(
b0001 .
1,
1%
#100
0!
0#
0(
#110
1!
1#
1(
1&
1*
b0101 '
b0101 +
b0010 .
#120
0!
0#
0(
#130
1!
1#
1(
b0011 '
b0011 +
b0001 -
b0011 .
#140
0!
0#
0(
#150
1!
1#
1(
b1100 '
b1100 +
b0010 -
b0100 .
#160
0!
0#
0(
#170
1!
1#
1(
b0001 '
b0001 +
b0011 -
b0101 .
#180
0!
0#
0(
#190
1!
1#
1(
b0110 '
b0110 +
b0100 -
b0110 .
#200
0!
0#
0(
#210
1!
1#
1(
b0010 '
b0010 +
b0101 -
b0111 .
#220
0!
0#
0(
#230
1!
1#
1(
b0110 -
b1000 .
#240
0!
0#
0(
#250
1!
1#
1(
b0011 '
b0011 +
b0111 -
b1001 .
#260
0!
0#
0(
#270
1!
1#
1(
b1011 '
b1011 +
b1000 -
b1010 .
#280
0!
0#
0(
#290
1!
1#
1(
b1010 '
b1010 +
b1001 -
b1011 .
#300
0!
0#
0(
#310
1!
1#
1(
0&
0*
b0000 '
b0000 +
b0000 -
0,
0%
b0111 /
b0000 .
#320
0!
0#
0(
#330
1!
1#
1(
b0001 .
#340
0!
0#
0(
#350
1!
1#
1(
b0010 .
#360
0!
0#
0(
#370
1!
1#
1(
b0011 .
#380
0!
0#
0(
#390
1!
1#
1(
b0100 .
#400
0!
0#
0(
#410
1!
1#
1(
b0101 .
#420
0!
0#
0(
#430
1!
1#
1(
b0110 .
#440
0!
0#
0(
#450
1!
1#
1(
b0111 .
#460
0!
0#
0(
#470
1!
1#
1(
b1000 .
1,
1%
#480
0!
0#
0(
#490
1!
1#
1(
1&
1*
b1010 '
b1010 +
b1001 .
#500
0!
0#
0(
#510
1!
1#
1(
b1100 '
b1100 +
b0001 -
b1010 .
#520
0!
0#
0(
#530
1!
1#
1(
b1001 '
b1001 +
b0010 -
b1011 .
#540
0!
0#
0(
#550
1!
1#
1(
b1111 '
b1111 +
b0011 -
b1100 .
#560
0!
0#
0(
#570
1!
1#
1(
b1001 '
b1001 +
b0100 -
b1101 .
#580
0!
0#
0(
#590
1!
1#
1(
b0000 '
b0000 +
b0101 -
b1110 .
#600
0!
0#
0(
#610
1!
1#
1(
b1101 '
b1101 +
b0110 -
b1111 .
#620
0!
0#
0(
#630
1!
1#
1(
b0110 '
b0110 +
b0111 -
b0000 .
#640
0!
0#
0(
#650
1!
1#
1(
b0011 '
b0011 +
b1000 -
b0001 .
#660
0!
0#
0(
#670
1!
1#
1(
b0001 '
b0001 +
b1001 -
b0010 .
#680
0!
0#
0(
#690
1!
1#
1(
0&
0*
b0000 '
b0000 +
b0000 -
0,
0%
b0000 .
#700
0!
0#
0(
#710
1!
1#
1(
b0001 .
#720
0!
0#
0(
#730
1!
1#
1(
b0010 .
#740
0!
0#
0(
#750
1!
1#
1(
b0011 .
#760
0!
0#
0(
#770
1!
1#
1(
b0100 .
#780
0!
0#
0(
#790
1!
1#
1(
b0101 .
#800
0!
0#
0(
#810
1!
1#
1(
b0110 .
#820
0!
0#
0(
#830
1!
1#
1(
b0111 .
#840
0!
0#
0(
#850
1!
1#
1(
b1000 .
1,
1%
#860
0!
0#
0(
#870
1!
1#
1(
1&
1*
b0100 '
b0100 +
b1001 .
#880
0!
0#
0(
#890
1!
1#
1(
b1101 '
b1101 +
b0001 -
b1010 .
#900
0!
0#
0(
#910
1!
1#
1(
b1001 '
b1001 +
b0010 -
b1011 .
#920
0!
0#
0(
#930
1!
1#
1(
b1011 '
b1011 +
b0011 -
b1100 .
#940
0!
0#
0(
#950
1!
1#
1(
b0110 '
b0110 +
b0100 -
b1101 .
#960
0!
0#
0(
#970
1!
1#
1(
b1110 '
b1110 +
b0101 -
b1110 .
#980
0!
0#
0(
#990
1!
1#
1(
b0100 '
b0100 +
b0110 -
b1111 .
#1000
0!
0#
0(
#1010
1!
1#
1(
b0011 '
b0011 +
b0111 -
b0000 .
#1020
0!
0#
0(
#1030
1!
1#
1(
b1100 '
b1100 +
b1000 -
b0001 .
#1040
0!
0#
0(
#1050
1!
1#
1(
b1011 '
b1011 +
b1001 -
b0010 .
#1060
0!
0#
0(
#1070
1!
1#
1(
0&
0*
b0000 '
b0000 +
b0000 -
0,
0%
b0110 /
b0000 .
#1080
0!
0#
0(
#1090
1!
1#
1(
b0001 .
#1100
0!
0#
0(
#1110
1!
1#
1(
b0010 .
#1120
0!
0#
0(
#1130
1!
1#
1(
b0011 .
#1140
0!
0#
0(
#1150
1!
1#
1(
b0100 .
#1160
0!
0#
0(
#1170
1!
1#
1(
b0101 .
#1180
0!
0#
0(
#1190
1!
1#
1(
b0110 .
#1200
0!
0#
0(
#1210
1!
1#
1(
b0111 .
1,
1%
#1220
0!
0#
0(
#1230
1!
1#
1(
1&
1*
b0101 '
b0101 +
b1000 .
#1240
0!
0#
0(
#1250
1!
1#
1(
b1011 '
b1011 +
b0001 -
b1001 .
#1260
0!
0#
0(
#1270
1!
1#
1(
b1111 '
b1111 +
b0010 -
b1010 .
#1280
0!
0#
0(
#1290
1!
1#
1(
b0001 '
b0001 +
b0011 -
b1011 .
#1300
0!
0#
0(
#1310
1!
1#
1(
b1010 '
b1010 +
b0100 -
b1100 .
#1320
0!
0#
0(
#1330
1!
1#
1(
b1101 '
b1101 +
b0101 -
b1101 .
#1340
0!
0#
0(
#1350
1!
1#
1(
b0101 '
b0101 +
b0110 -
b1110 .
#1360
0!
0#
0(
#1370
1!
1#
1(
b1101 '
b1101 +
b0111 -
b1111 .
#1380
0!
0#
0(
#1390
1!
1#
1(
b1110 '
b1110 +
b1000 -
b0000 .
#1400
0!
0#
0(
#1410
1!
1#
1(
b1101 '
b1101 +
b1001 -
b0001 .
#1420
0!
0#
0(
#1430
1!
1#
1(
0&
0*
b0000 '
b0000 +
b0000 -
0,
0%
b0101 /
b0000 .
#1440
0!
0#
0(
#1450
1!
1#
1(
b0001 .
#1460
0!
0#
0(
#1470
1!
1#
1(
b0010 .
#1480
0!
0#
0(
#1490
1!
1#
1(
b0011 .
#1500
0!
0#
0(
#1510
1!
1#
1(
b0100 .
#1520
0!
0#
0(
#1530
1!
1#
1(
b0101 .
#1540
0!
0#
0(
#1550
1!
1#
1(
b0110 .
1,
1%
#1560
0!
0#
0(
#1570
1!
1#
1(
1&
1*
b0001 '
b0001 +
b0111 .
#1580
0!
0#
0(
#1590
1!
1#
1(
b0000 '
b0000 +
b0001 -
b1000 .
#1600
0!
0#
0(
#1610
1!
1#
1(
b1010 '
b1010 +
b0010 -
b1001 .
#1620
0!
0#
0(
#1630
1!
1#
1(
b0000 '
b0000 +
b0011 -
b1010 .
#1640
0!
0#
0(
#1650
1!
1#
1(
b0100 -
b1011 .
#1660
0!
0#
0(
#1670
1!
1#
1(
b1101 '
b1101 +
b0101 -
b1100 .
#1680
0!
0#
0(
#1690
1!
1#
1(
b1100 '
b1100 +
b0110 -
b1101 .
#1700
0!
0#
0(
#1710
1!
1#
1(
b0101 '
b0101 +
b0111 -
b1110 .
#1720
0!
0#
0(
#1730
1!
1#
1(
b1100 '
b1100 +
b1000 -
b1111 .
#1740
0!
0#
0(
#1750
1!
1#
1(
b1011 '
b1011 +
b1001 -
b0000 .
#1760
0!
0#
0(
#1770
1!
1#
1(
0&
0*
b0000 '
b0000 +
b0000 -
0,
0%
b0110 /
#1780
0!
0#
0(
#1790
1!
1#
1(
b0001 .
#1800
0!
0#
0(
#1810
1!
1#
1(
b0010 .
#1820
0!
0#
0(
#1830
1!
1#
1(
b0011 .
#1840
0!
0#
0(
#1850
1!
1#
1(
b0100 .
#1860
0!
0#
0(
#1870
1!
1#
1(
b0101 .
#1880
0!
0#
0(
#1890
1!
1#
1(
b0110 .
#1900
0!
0#
0(
#1910
1!
1#
1(
b0111 .
1,
1%
#1920
0!
0#
0(
#1930
1!
1#
1(
1&
1*
b0100 '
b0100 +
b1000 .
#1940
0!
0#
0(
#1950
1!
1#
1(
b0110 '
b0110 +
b0001 -
b1001 .
#1960
0!
0#
0(
#1970
1!
1#
1(
b0101 '
b0101 +
b0010 -
b1010 .
#1980
0!
0#
0(
#1990
1!
1#
1(
b0011 '
b0011 +
b0011 -
b1011 .
#2000
0!
0#
0(
#2010
1!
1#
1(
b0110 '
b0110 +
b0100 -
b1100 .
#2020
0!
0#
0(
#2030
1!
1#
1(
b1101 '
b1101 +
b0101 -
b1101 .
#2040
0!
0#
0(
#2050
1!
1#
1(
b0011 '
b0011 +
b0110 -
b1110 .
#2060
0!
0#
0(
#2070
1!
1#
1(
b1101 '
b1101 +
b0111 -
b1111 .
#2080
0!
0#
0(
#2090
1!
1#
1(
b1111 '
b1111 +
b1000 -
b0000 .
#2100
0!
0#
0(
#2110
1!
1#
1(
b1001 '
b1001 +
b1001 -
b0001 .
#2120
0!
0#
0(
#2130
1!
1#
1(
0&
0*
b0000 '
b0000 +
b0000 -
0,
0%
b1010 /
b0000 .
#2140
0!
0#
0(
#2150
1!
1#
1(
b0001 .
#2160
0!
0#
0(
#2170
1!
1#
1(
b0010 .
#2180
0!
0#
0(
#2190
1!
1#
1(
b0011 .
#2200
0!
0#
0(
#2210
1!
1#
1(
b0100 .
#2220
0!
0#
0(
#2230
1!
1#
1(
b0101 .
#2240
0!
0#
0(
#2250
1!
1#
1(
b0110 .
#2260
0!
0#
0(
#2270
1!
1#
1(
b0111 .
#2280
0!
0#
0(
#2290
1!
1#
1(
b1000 .
#2300
0!
0#
0(
#2310
1!
1#
1(
b1001 .
#2320
0!
0#
0(
#2330
1!
1#
1(
b1010 .
#2340
0!
0#
0(
#2350
1!
1#
1(
b1011 .
1,
1%
#2360
0!
0#
0(
#2370
1!
1#
1(
1&
1*
b1010 '
b1010 +
b1100 .
#2380
0!
0#
0(
#2390
1!
1#
1(
b0001 '
b0001 +
b0001 -
b1101 .
#2400
0!
0#
0(
#2410
1!
1#
1(
b1001 '
b1001 +
b0010 -
b1110 .
#2420
0!
0#
0(
#2430
1!
1#
1(
b1110 '
b1110 +
b0011 -
b1111 .
#2440
0!
0#
0(
#2450
1!
1#
1(
b1011 '
b1011 +
b0100 -
b0000 .
#2460
0!
0#
0(
#2470
1!
1#
1(
b1110 '
b1110 +
b0101 -
b0001 .
#2480
0!
0#
0(
#2490
1!
1#
1(
b1111 '
b1111 +
b0110 -
b0010 .
#2500
0!
0#
0(
#2510
1!
1#
1(
b0100 '
b0100 +
b0111 -
b0011 .
#2520
0!
0#
0(
#2530
1!
1#
1(
b0110 '
b0110 +
b1000 -
b0100 .
#2540
0!
0#
0(
#2550
1!
1#
1(
b1001 -
b0101 .
#2560
0!
0#
0(
#2570
1!
1#
1(
0&
0*
b0000 '
b0000 +
b0000 -
0,
0%
b1001 /
b0000 .
#2580
0!
0#
0(
#2590
1!
1#
1(
b0001 .
#2600
0!
0#
0(
#2610
1!
1#
1(
b0010 .
#2620
0!
0#
0(
#2630
1!
1#
1(
b0011 .
#2640
0!
0#
0(
#2650
1!
1#
1(
b0100 .
#2660
0!
0#
0(
#2670
1!
1#
1(
b0101 .
#2680
0!
0#
0(
#2690
1!
1#
1(
b0110 .
#2700
0!
0#
0(
#2710
1!
1#
1(
b0111 .
#2720
0!
0#
0(
#2730
1!
1#
1(
b1000 .
#2740
0!
0#
0(
#2750
1!
1#
1(
b1001 .
#2760
0!
0#
0(
#2770
1!
1#
1(
b1010 .
1,
1%
#2780
0!
0#
0(
#2790
1!
1#
1(
1&
1*
b0101 '
b0101 +
b1011 .
#2800
0!
0#
0(
#2810
1!
1#
1(
b0010 '
b0010 +
b0001 -
b1100 .
#2820
0!
0#
0(
#2830
1!
1#
1(
b1000 '
b1000 +
b0010 -
b1101 .
#2840
0!
0#
0(
#2850
1!
1#
1(
b0011 '
b0011 +
b0011 -
b1110 .
#2860
0!
0#
0(
#2870
1!
1#
1(
b0101 '
b0101 +
b0100 -
b1111 .
#2880
0!
0#
0(
#2890
1!
1#
1(
b0101 -
b0000 .
#2900
0!
0#
0(
#2910
1!
1#
1(
b0100 '
b0100 +
b0110 -
b0001 .
#2920
0!
0#
0(
#2930
1!
1#
1(
b1101 '
b1101 +
b0111 -
b0010 .
#2940
0!
0#
0(
#2950
1!
1#
1(
b0011 '
b0011 +
b1000 -
b0011 .
#2960
0!
0#
0(
#2970
1!
1#
1(
b1011 '
b1011 +
b1001 -
b0100 .
#2980
0!
0#
0(
#2990
1!
1#
1(
0&
0*
b0000 '
b0000 +
b0000 -
0,
0%
b1000 /
b0000 .
#3000
0!
0#
0(
#3010
1!
1#
1(
b0001 .
#3020
0!
0#
0(
#3030
1!
1#
1(
b0010 .
#3040
0!
0#
0(
#3050
1!
1#
1(
b0011 .
#3060
0!
0#
0(
#3070
1!
1#
1(
b0100 .
#3080
0!
0#
0(
#3090
1!
1#
1(
b0101 .
#3100
0!
0#
0(
#3110
1!
1#
1(
b0110 .
#3120
0!
0#
0(
#3130
1!
1#
1(
b0111 .
#3140
0!
0#
0(
#3150
1!
1#
1(
b1000 .
#3160
0!
0#
0(
#3170
1!
1#
1(
b1001 .
1,
1%
#3180
0!
0#
0(
#3190
1!
1#
1(
1&
1*
b1010 .
#3200
0!
0#
0(
#3210
1!
1#
1(
b1001 '
b1001 +
b0001 -
b1011 .
#3220
0!
0#
0(
#3230
1!
1#
1(
b0111 '
b0111 +
b0010 -
b1100 .
#3240
0!
0#
0(
#3250
1!
1#
1(
b0101 '
b0101 +
b0011 -
b1101 .
#3260
0!
0#
0(
#3270
1!
1#
1(
b1111 '
b1111 +
b0100 -
b1110 .
#3280
0!
0#
0(
#3290
1!
1#
1(
b1011 '
b1011 +
b0101 -
b1111 .
#3300
0!
0#
0(
#3310
1!
1#
1(
b0010 '
b0010 +
b0110 -
b0000 .
#3320
0!
0#
0(
#3330
1!
1#
1(
b1100 '
b1100 +
b0111 -
b0001 .
#3340
0!
0#
0(
#3350
1!
1#
1(
b0101 '
b0101 +
b1000 -
b0010 .
#3360
0!
0#
0(
#3370
1!
1#
1(
b1100 '
b1100 +
b1001 -
b0011 .
#3380
0!
0#
0(
#3390
1!
1#
1(
0&
0*
b0000 '
b0000 +
b0000 -
0,
0%
b0101 /
b0000 .
#3400
0!
0#
0(
#3410
1!
1#
1(
b0001 .
#3420
0!
0#
0(
#3430
1!
1#
1(
b0010 .
#3440
0!
0#
0(
#3450
1!
1#
1(
b0011 .
#3460
0!
0#
0(
#3470
1!
1#
1(
b0100 .
#3480
0!
0#
0(
#3490
1!
1#
1(
b0101 .
#3500
0!
0#
0(
#3510
1!
1#
1(
b0110 .
1,
1%
#3520
0!
0#
0(
#3530
1!
1#
1(
1&
1*
b1100 '
b1100 +
b0111 .
#3540
0!
0#
0(
#3550
1!
1#
1(
b0100 '
b0100 +
b0001 -
b1000 .
#3560
0!
0#
0(
#3570
1!
1#
1(
b1001 '
b1001 +
b0010 -
b1001 .
#3580
0!
0#
0(
#3590
1!
1#
1(
b0111 '
b0111 +
b0011 -
b1010 .
#3600
0!
0#
0(
#3610
1!
1#
1(
b0100 '
b0100 +
b0100 -
b1011 .
#3620
0!
0#
0(
#3630
1!
1#
1(
b0111 '
b0111 +
b0101 -
b1100 .
#3640
0!
0#
0(
#3650
1!
1#
1(
b1011 '
b1011 +
b0110 -
b1101 .
#3660
0!
0#
0(
#3670
1!
1#
1(
b0110 '
b0110 +
b0111 -
b1110 .
#3680
0!
0#
0(
#3690
1!
1#
1(
b1000 '
b1000 +
b1000 -
b1111 .
#3700
0!
0#
0(
#3710
1!
1#
1(
b1111 '
b1111 +
b1001 -
b0000 .
#3720
0!
0#
0(
#3730
1!
1#
1(
0&
0*
b0000 '
b0000 +
b0000 -
0,
0%
b1010 /
#3740
0!
0#
0(
#3750
1!
1#
1(
b0001 .
#3760
0!
0#
0(
#3770
1!
1#
1(
b0010 .
#3780
0!
0#
0(
#3790
1!
1#
1(
b0011 .
#3800
0!
0#
0(
#3810
1!
1#
1(
b0100 .
#3820
0!
0#
0(
#3830
1!
1#
1(
b0101 .
#3840
0!
0#
0(
#3850
1!
1#
1(
b0110 .
#3860
0!
0#
0(
#3870
1!
1#
1(
b0111 .
#3880
0!
0#
0(
#3890
1!
1#
1(
b1000 .
#3900
0!
0#
0(
#3910
1!
1#
1(
b1001 .
#3920
0!
0#
0(
#3930
1!
1#
1(
b1010 .
#3940
0!
0#
0(
#3950
1!
1#
1(
b1011 .
1,
1%
#3960
0!
0#
0(
#3970
1!
1#
1(
1&
1*
b1110 '
b1110 +
b1100 .
#3980
0!
0#
0(
#3990
1!
1#
1(
b0101 '
b0101 +
b0001 -
b1101 .
#4000
0!
0#
0(
#4010
1!
1#
1(
b0110 '
b0110 +
b0010 -
b1110 .
#4020
0!
0#
0(
#4030
1!
1#
1(
b0001 '
b0001 +
b0011 -
b1111 .
#4040
0!
0#
0(
#4050
1!
1#
1(
b1000 '
b1000 +
b0100 -
b0000 .
#4060
0!
0#
0(
#4070
1!
1#
1(
b1011 '
b1011 +
b0101 -
b0001 .
#4080
0!
0#
0(
#4090
1!
1#
1(
b0111 '
b0111 +
b0110 -
b0010 .
#4100
0!
0#
0(
#4110
1!
1#
1(
b0110 '
b0110 +
b0111 -
b0011 .
#4120
0!
0#
0(
#4130
1!
1#
1(
b0001 '
b0001 +
b1000 -
b0100 .
#4140
0!
0#
0(
#4150
1!
1#
1(
b0010 '
b0010 +
b1001 -
b0101 .
#4160
0!
0#
0(
#4170
1!
1#
1(
0&
0*
b0000 '
b0000 +
b0000 -
0,
0%
b0000 .
#4180
0!
0#
0(
#4190
1!
1#
1(
b0001 .
#4200
0!
0#
0(
#4210
1!
1#
1(
b0010 .
#4220
0!
0#
0(
#4230
1!
1#
1(
b0011 .
#4240
0!
0#
0(
#4250
1!
1#
1(
b0100 .
#4260
0!
0#
0(
#4270
1!
1#
1(
b0101 .
#4280
0!
0#
0(
#4290
1!
1#
1(
b0110 .
#4300
0!
0#
0(
#4310
1!
1#
1(
b0111 .
#4320
0!
0#
0(
#4330
1!
1#
1(
b1000 .
#4340
0!
0#
0(
#4350
1!
1#
1(
b1001 .
#4360
0!
0#
0(
#4370
1!
1#
1(
b1010 .
#4380
0!
0#
0(
#4390
1!
1#
1(
b1011 .
1,
1%
#4400
0!
0#
0(
#4410
1!
1#
1(
1&
1*
b0111 '
b0111 +
b1100 .
#4420
0!
0#
0(
#4430
1!
1#
1(
b0000 '
b0000 +
b0001 -
b1101 .
#4440
0!
0#
0(
#4450
1!
1#
1(
b0010 -
b1110 .
#4460
0!
0#
0(
#4470
1!
1#
1(
b0101 '
b0101 +
b0011 -
b1111 .
#4480
0!
0#
0(
#4490
1!
1#
1(
b0000 '
b0000 +
b0100 -
b0000 .
#4500
0!
0#
0(
#4510
1!
1#
1(
b0110 '
b0110 +
b0101 -
b0001 .
#4520
0!
0#
0(
#4530
1!
1#
1(
b1110 '
b1110 +
b0110 -
b0010 .
#4540
0!
0#
0(
#4550
1!
1#
1(
b0111 -
b0011 .
#4560
0!
0#
0(
#4570
1!
1#
1(
b1100 '
b1100 +
b1000 -
b0100 .
#4580
0!
0#
0(
#4590
1!
1#
1(
b1110 '
b1110 +
b1001 -
b0101 .
#4600
0!
0#
0(
#4610
1!
1#
1(
0&
0*
b0000 '
b0000 +
b0000 -
0,
0%
b0111 /
b0000 .
#4620
0!
0#
0(
#4630
1!
1#
1(
b0001 .
#4640
0!
0#
0(
#4650
1!
1#
1(
b0010 .
#4660
0!
0#
0(
#4670
1!
1#
1(
b0011 .
#4680
0!
0#
0(
#4690
1!
1#
1(
b0100 .
#4700
0!
0#
0(
#4710
1!
1#
1(
b0101 .
#4720
0!
0#
0(
#4730
1!
1#
1(
b0110 .
#4740
0!
0#
0(
#4750
1!
1#
1(
b0111 .
#4760
0!
0#
0(
#4770
1!
1#
1(
b1000 .
1,
1%
#4780
0!
0#
0(
#4790
1!
1#
1(
1&
1*
b0011 '
b0011 +
b1001 .
#4800
0!
0#
0(
#4810
1!
1#
1(
b0001 -
b1010 .
#4820
0!
0#
0(
#4830
1!
1#
1(
b0001 '
b0001 +
b0010 -
b1011 .
#4840
0!
0#
0(
#4850
1!
1#
1(
b1010 '
b1010 +
b0011 -
b1100 .
#4860
0!
0#
0(
#4870
1!
1#
1(
b0100 -
b1101 .
#4880
0!
0#
0(
#4890
1!
1#
1(
b0101 '
b0101 +
b0101 -
b1110 .
#4900
0!
0#
0(
#4910
1!
1#
1(
b1011 '
b1011 +
b0110 -
b1111 .
#4920
0!
0#
0(
#4930
1!
1#
1(
b1000 '
b1000 +
b0111 -
b0000 .
#4940
0!
0#
0(
#4950
1!
1#
1(
b0010 '
b0010 +
b1000 -
b0001 .
#4960
0!
0#
0(
#4970
1!
1#
1(
b0100 '
b0100 +
b1001 -
b0010 .
#4980
0!
0#
0(
#4990
1!
1#
1(
0&
0*
b0000 '
b0000 +
b0000 -
0,
0%
b0000 .
#5000
0!
0#
0(
#5010
1!
1#
1(
b0001 .
#5020
0!
0#
0(
#5030
1!
1#
1(
b0010 .
#5040
0!
0#
0(
#5050
1!
1#
1(
b0011 .
#5060
0!
0#
0(
#5070
1!
1#
1(
b0100 .
#5080
0!
0#
0(
#5090
1!
1#
1(
b0101 .
#5100
0!
0#
0(
#5110
1!
1#
1(
b0110 .
#5120
0!
0#
0(
#5130
1!
1#
1(
b0111 .
#5140
0!
0#
0(
#5150
1!
1#
1(
b1000 .
1,
1%
#5160
0!
0#
0(
#5170
1!
1#
1(
1&
1*
b1101 '
b1101 +
b1001 .
#5180
0!
0#
0(
#5190
1!
1#
1(
b1001 '
b1001 +
b0001 -
b1010 .
#5200
0!
0#
0(
#5210
1!
1#
1(
b0011 '
b0011 +
b0010 -
b1011 .
#5220
0!
0#
0(
#5230
1!
1#
1(
b1010 '
b1010 +
b0011 -
b1100 .
#5240
0!
0#
0(
#5250
1!
1#
1(
b0100 '
b0100 +
b0100 -
b1101 .
#5260
0!
0#
0(
#5270
1!
1#
1(
b1011 '
b1011 +
b0101 -
b1110 .
#5280
0!
0#
0(
#5290
1!
1#
1(
b1111 '
b1111 +
b0110 -
b1111 .
#5300
0!
0#
0(
#5310
1!
1#
1(
b0110 '
b0110 +
b0111 -
b0000 .
#5320
0!
0#
0(
#5330
1!
1#
1(
b1011 '
b1011 +
b1000 -
b0001 .
#5340
0!
0#
0(
#5350
1!
1#
1(
b1001 '
b1001 +
b1001 -
b0010 .
#5360
0!
0#
0(
#5370
1!
1#
1(
0&
0*
b0000 '
b0000 +
b0000 -
0,
0%
b1010 /
b0000 .
#5380
0!
0#
0(
#5390
1!
1#
1(
b0001 .
#5400
0!
0#
0(
#5410
1!
1#
1(
b0010 .
#5420
0!
0#
0(
#5430
1!
1#
1(
b0011 .
#5440
0!
0#
0(
#5450
1!
1#
1(
b0100 .
#5460
0!
0#
0(
#5470
1!
1#
1(
b0101 .
#5480
0!
0#
0(
#5490
1!
1#
1(
b0110 .
#5500
0!
0#
0(
#5510
1!
1#
1(
b0111 .
#5520
0!
0#
0(
#5530
1!
1#
1(
b1000 .
#5540
0!
0#
0(
#5550
1!
1#
1(
b1001 .
#5560
0!
0#
0(
#5570
1!
1#
1(
b1010 .
#5580
0!
0#
0(
#5590
1!
1#
1(
b1011 .
1,
1%
#5600
0!
0#
0(
#5610
1!
1#
1(
1&
1*
b0010 '
b0010 +
b1100 .
#5620
0!
0#
0(
#5630
1!
1#
1(
b1110 '
b1110 +
b0001 -
b1101 .
#5640
0!
0#
0(
#5650
1!
1#
1(
b1010 '
b1010 +
b0010 -
b1110 .
#5660
0!
0#
0(
#5670
1!
1#
1(
b0000 '
b0000 +
b0011 -
b1111 .
#5680
0!
0#
0(
#5690
1!
1#
1(
b1001 '
b1001 +
b0100 -
b0000 .
#5700
0!
0#
0(
#5710
1!
1#
1(
b1101 '
b1101 +
b0101 -
b0001 .
#5720
0!
0#
0(
#5730
1!
1#
1(
b1110 '
b1110 +
b0110 -
b0010 .
#5740
0!
0#
0(
#5750
1!
1#
1(
b1111 '
b1111 +
b0111 -
b0011 .
#5760
0!
0#
0(
#5770
1!
1#
1(
b1000 -
b0100 .
#5780
0!
0#
0(
#5790
1!
1#
1(
b1000 '
b1000 +
b1001 -
b0101 .
#5800
0!
0#
0(
#5810
1!
1#
1(
0&
0*
b0000 '
b0000 +
b0000 -
0,
0%
b0000 .
#5820
0!
0#
0(
#5830
1!
1#
1(
b0001 .
#5840
0!
0#
0(
#5850
1!
1#
1(
b0010 .
#5860
0!
0#
0(
#5870
1!
1#
1(
b0011 .
#5880
0!
0#
0(
#5890
1!
1#
1(
b0100 .
#5900
0!
0#
0(
#5910
1!
1#
1(
b0101 .
#5920
0!
0#
0(
#5930
1!
1#
1(
b0110 .
#5940
0!
0#
0(
#5950
1!
1#
1(
b0111 .
#5960
0!
0#
0(
#5970
1!
1#
1(
b1000 .
#5980
0!
0#
0(
#5990
1!
1#
1(
b1001 .
#6000
0!
0#
0(
#6010
1!
1#
1(
b1010 .
#6020
0!
0#
0(
#6030
1!
1#
1(
b1011 .
1,
1%
#6040
0!
0#
0(
#6050
1!
1#
1(
1&
1*
b1100 '
b1100 +
b1100 .
#6060
0!
0#
0(
#6070
1!
1#
1(
b0000 '
b0000 +
b0001 -
b1101 .
#6080
0!
0#
0(
#6090
1!
1#
1(
b0100 '
b0100 +
b0010 -
b1110 .
#6100
0!
0#
0(
#6110
1!
1#
1(
b1000 '
b1000 +
b0011 -
b1111 .
#6120
0!
0#
0(
#6130
1!
1#
1(
b0001 '
b0001 +
b0100 -
b0000 .
#6140
0!
0#
0(
#6150
1!
1#
1(
b0101 '
b0101 +
b0101 -
b0001 .
#6160
0!
0#
0(
#6170
1!
1#
1(
b0001 '
b0001 +
b0110 -
b0010 .
#6180
0!
0#
0(
#6190
1!
1#
1(
b0111 '
b0111 +
b0111 -
b0011 .
#6200
0!
0#
0(
#6210
1!
1#
1(
b1000 '
b1000 +
b1000 -
b0100 .
#6220
0!
0#
0(
#6230
1!
1#
1(
b1010 '
b1010 +
b1001 -
b0101 .
#6240
0!
0#
0(
#6250
1!
1#
1(
0&
0*
b0000 '
b0000 +
b0000 -
0,
0%
b0101 /
b0000 .
#6260
0!
0#
0(
#6270
1!
1#
1(
b0001 .
#6280
0!
0#
0(
#6290
1!
1#
1(
b0010 .
#6300
0!
0#
0(
#6310
1!
1#
1(
b0011 .
#6320
0!
0#
0(
#6330
1!
1#
1(
b0100 .
#6340
0!
0#
0(
#6350
1!
1#
1(
b0101 .
#6360
0!
0#
0(
#6370
1!
1#
1(
b0110 .
1,
1%
#6380
0!
0#
0(
#6390
1!
1#
1(
1&
1*
b1000 '
b1000 +
b0111 .
#6400
0!
0#
0(
#6410
1!
1#
1(
b0110 '
b0110 +
b0001 -
b1000 .
#6420
0!
0#
0(
#6430
1!
1#
1(
b1001 '
b1001 +
b0010 -
b1001 .
#6440
0!
0#
0(
#6450
1!
1#
1(
b0101 '
b0101 +
b0011 -
b1010 .
#6460
0!
0#
0(
#6470
1!
1#
1(
b0111 '
b0111 +
b0100 -
b1011 .
#6480
0!
0#
0(
#6490
1!
1#
1(
b0000 '
b0000 +
b0101 -
b1100 .
#6500
0!
0#
0(
#6510
1!
1#
1(
b0010 '
b0010 +
b0110 -
b1101 .
#6520
0!
0#
0(
#6530
1!
1#
1(
b1100 '
b1100 +
b0111 -
b1110 .
#6540
0!
0#
0(
#6550
1!
1#
1(
b0001 '
b0001 +
b1000 -
b1111 .
#6560
0!
0#
0(
#6570
1!
1#
1(
b0011 '
b0011 +
b1001 -
b0000 .
#6580
0!
0#
0(
#6590
1!
1#
1(
0&
0*
b0000 '
b0000 +
b0000 -
0,
0%
b0111 /
#6600
0!
0#
0(
#6610
1!
1#
1(
b0001 .
#6620
0!
0#
0(
#6630
1!
1#
1(
b0010 .
#6640
0!
0#
0(
#6650
1!
1#
1(
b0011 .
#6660
0!
0#
0(
#6670
1!
1#
1(
b0100 .
#6680
0!
0#
0(
#6690
1!
1#
1(
b0101 .
#6700
0!
0#
0(
#6710
1!
1#
1(
b0110 .
#6720
0!
0#
0(
#6730
1!
1#
1(
b0111 .
#6740
0!
0#
0(
#6750
1!
1#
1(
b1000 .
1,
1%
#6760
0!
0#
0(
